{
  "__type__": "cc.AnimationClip",
  "_name": "player_goleft",
  "_objFlags": 0,
  "_native": "",
  "_duration": 0.35,
  "sample": 60,
  "speed": 0.5,
  "wrapMode": 1,
  "curveData": {
    "comps": {
      "cc.Sprite": {
        "spriteFrame": [
          {
            "frame": 0,
            "value": {
              "__uuid__": "2758f869-ffd4-4ed8-b2d0-314b075aaaaa"
            }
          },
          {
            "frame": 0.08333333333333333,
            "value": {
              "__uuid__": "30977d63-0469-49b6-8592-efbdf471ccb8"
            }
          },
          {
            "frame": 0.16666666666666666,
            "value": {
              "__uuid__": "858dc78c-b462-451b-ac78-d962602d009c"
            }
          },
          {
            "frame": 0.25,
            "value": {
              "__uuid__": "4f0fa63c-dfdd-4b5b-93a0-7e5bb6f8bf38"
            }
          },
          {
            "frame": 0.3333333333333333,
            "value": {
              "__uuid__": "2758f869-ffd4-4ed8-b2d0-314b075aaaaa"
            }
          }
        ]
      }
    }
  },
  "events": []
}