{
  "__type__": "cc.AnimationClip",
  "_name": "player_idleUp",
  "_objFlags": 0,
  "_native": "",
  "_duration": 0.016666666666666666,
  "sample": 60,
  "speed": 1,
  "wrapMode": 1,
  "curveData": {
    "comps": {
      "cc.Sprite": {
        "spriteFrame": [
          {
            "frame": 0,
            "value": {
              "__uuid__": "d34a305d-f62c-4bda-ae20-7f6038d6d3af"
            }
          }
        ]
      }
    }
  },
  "events": []
}