{
  "__type__": "cc.AnimationClip",
  "_name": "player_idleDown",
  "_objFlags": 0,
  "_native": "",
  "_duration": 0.016666666666666666,
  "sample": 60,
  "speed": 1,
  "wrapMode": 1,
  "curveData": {
    "comps": {
      "cc.Sprite": {
        "spriteFrame": [
          {
            "frame": 0,
            "value": {
              "__uuid__": "50aed390-ed18-4b74-a98c-14d72e2a18fa"
            }
          }
        ]
      }
    }
  },
  "events": []
}